<svg xmlns="http://www.w3.org/2000/svg" width="80" height="80" viewBox="0 0 80 80">
  <defs>
    <style>
      .cls-1 {
        fill: #fff;
      }
    </style>
  </defs>
  <g id="Group_51" data-name="Group 51" transform="translate(-327.186 -121.323)">
    <path id="Path_499" data-name="Path 499" d="M407.184,201.322h-80v-80h80Z"/>
    <g id="Group_49" data-name="Group 49" transform="translate(337.049 148.015)">
      <path id="Path_500" data-name="Path 500" class="cls-1" d="M352.037,193.281h-1.679v-9.25h4.006a2.866,2.866,0,0,1,1.094.2,2.223,2.223,0,0,1,.82.577,2.665,2.665,0,0,1,.521.908,3.572,3.572,0,0,1,.185,1.179,3.133,3.133,0,0,1-.414,1.643,2.266,2.266,0,0,1-1.24.981l1.818,3.764h-1.869l-1.653-3.565h-1.589Zm2.162-5.036a1.047,1.047,0,0,0,.763-.272,1.03,1.03,0,0,0,.28-.775v-.61a1.009,1.009,0,0,0-.28-.768,1.064,1.064,0,0,0-.763-.265h-2.162v2.69Z" transform="translate(-350.358 -184.031)"/>
      <path id="Path_501" data-name="Path 501" class="cls-1" d="M378.824,193.281l-.712-2.359h-3.154l-.7,2.359h-1.7l2.976-9.25h2.086l2.95,9.25Zm-2.264-7.66H376.5l-1.131,3.8h2.34Z" transform="translate(-363.107 -184.031)"/>
      <path id="Path_502" data-name="Path 502" class="cls-1" d="M405.339,186.642h-.051l-.687,1.471-1.818,3.5-1.819-3.5-.687-1.471h-.051v6.64h-1.589v-9.25h1.895l2.276,4.519h.051l2.251-4.519h1.818v9.25h-1.589Z" transform="translate(-378.088 -184.031)"/>
      <path id="Path_503" data-name="Path 503" class="cls-1" d="M350.358,221.392h4.108a2.683,2.683,0,0,1,.985.172,2.154,2.154,0,0,1,.744.477,2,2,0,0,1,.464.749,2.879,2.879,0,0,1,.159.974,2.619,2.619,0,0,1-.133.895,1.762,1.762,0,0,1-.356.6,1.462,1.462,0,0,1-.509.358,1.707,1.707,0,0,1-.591.132v.08a1.877,1.877,0,0,1,.629.119,1.835,1.835,0,0,1,.623.378,2.07,2.07,0,0,1,.477.662,2.345,2.345,0,0,1,.191,1,3.076,3.076,0,0,1-.172,1.04,2.633,2.633,0,0,1-.477.842,2.241,2.241,0,0,1-.725.563,2.057,2.057,0,0,1-.915.205h-4.5Zm1.679,3.856h2.073a.954.954,0,0,0,.712-.258.985.985,0,0,0,.254-.722v-.411a.984.984,0,0,0-.254-.722.952.952,0,0,0-.712-.259h-2.073Zm0,3.91h2.34a1.034,1.034,0,0,0,.75-.258,1,1,0,0,0,.267-.749V227.7a.926.926,0,0,0-1.017-1.02h-2.34Z" transform="translate(-350.358 -205.489)"/>
      <path id="Path_504" data-name="Path 504" class="cls-1" d="M376.027,230.642h-1.678v-9.25h4.006a2.858,2.858,0,0,1,1.094.2,2.214,2.214,0,0,1,.82.576,2.665,2.665,0,0,1,.521.908,3.563,3.563,0,0,1,.185,1.179,3.133,3.133,0,0,1-.414,1.643,2.27,2.27,0,0,1-1.24.981l1.818,3.764H379.27l-1.653-3.565h-1.589Zm2.162-5.036a1.048,1.048,0,0,0,.763-.272,1.03,1.03,0,0,0,.28-.776v-.61a1.009,1.009,0,0,0-.28-.769,1.063,1.063,0,0,0-.763-.265h-2.162v2.69Z" transform="translate(-364.137 -205.489)"/>
      <path id="Path_505" data-name="Path 505" class="cls-1" d="M397.5,230.642v-1.4h1.17V222.8H397.5v-1.405h4.031V222.8h-1.183v6.441h1.183v1.4Z" transform="translate(-377.435 -205.489)"/>
      <path id="Path_506" data-name="Path 506" class="cls-1" d="M415.188,221.392h3.23a4.077,4.077,0,0,1,1.571.292,3.2,3.2,0,0,1,1.208.868,4.006,4.006,0,0,1,.776,1.445,7.6,7.6,0,0,1,0,4.042,4,4,0,0,1-.776,1.445,3.2,3.2,0,0,1-1.208.868,4.077,4.077,0,0,1-1.571.292h-3.23Zm3.23,7.7a1.974,1.974,0,0,0,1.494-.577,2.475,2.475,0,0,0,.553-1.769v-1.458a2.474,2.474,0,0,0-.553-1.769,1.976,1.976,0,0,0-1.494-.577h-1.551v6.15Z" transform="translate(-387.593 -205.489)"/>
      <path id="Path_507" data-name="Path 507" class="cls-1" d="M445.1,229h-.051a1.761,1.761,0,0,1-.719,1.133,2.6,2.6,0,0,1-1.609.457,3.467,3.467,0,0,1-1.456-.3,3.182,3.182,0,0,1-1.157-.908,4.459,4.459,0,0,1-.769-1.491,7.629,7.629,0,0,1,.006-4.115,4.292,4.292,0,0,1,.808-1.5,3.435,3.435,0,0,1,1.246-.928,3.976,3.976,0,0,1,1.615-.318,3.469,3.469,0,0,1,3.357,2.107l-1.361.835a2.485,2.485,0,0,0-.718-.994,1.936,1.936,0,0,0-1.278-.4,2.071,2.071,0,0,0-1.583.63,2.627,2.627,0,0,0-.591,1.862v1.484a2.614,2.614,0,0,0,.6,1.856,2.094,2.094,0,0,0,1.6.636,2.643,2.643,0,0,0,.738-.1,1.74,1.74,0,0,0,.6-.3,1.492,1.492,0,0,0,.407-.49,1.466,1.466,0,0,0,.152-.689v-.6h-1.742v-1.471h3.357v5.036H445.1Z" transform="translate(-401.304 -205.275)"/>
      <path id="Path_508" data-name="Path 508" class="cls-1" d="M465.41,230.642v-9.25h5.85v1.55h-4.171v2.24h3.688v1.551h-3.688v2.359h4.171v1.55Z" transform="translate(-416.438 -205.489)"/>
    </g>
    <g id="Group_50" data-name="Group 50" transform="translate(392.942 163.908)">
      <path id="Path_509" data-name="Path 509" class="cls-1" d="M482.653,221.734v1.8h-.393v-1.8h-.59v-.364h1.572v.364Z" transform="translate(-481.67 -221.37)"/>
      <path id="Path_510" data-name="Path 510" class="cls-1" d="M488.668,221.982h-.012l-.161.344-.426.819-.426-.819-.16-.344h-.012v1.554H487.1V221.37h.444l.533,1.059h.012l.527-1.059h.426v2.166h-.372Z" transform="translate(-484.788 -221.37)"/>
    </g>
  </g>
</svg>
